5 From simulation to model fitting – Advanced Cognitive Modeling Notes
…
  # Save the fitted model
  samples_memory_bayes$save_object(file = model_file)
  cat("Generated new model fit and saved to", model_file, "\n")
} else {
  # Load existing results
  samples_memory_bayes <- readRDS(model_file)
  cat("Loaded existing model fit from", model_file, "\n")
}

Loaded existing model fit from /Users/au209589/Dropbox/Teaching/AdvancedCognitiveModeling23_book/simmodels/ch06_BayesianMemory.rds 

samples_memory_bayes$summary() 

# A tibble: 364 × 10
   variable      mean median    sd   mad      q5    q95  rhat ess_bulk ess_tail
   <chr>        <dbl>  <dbl> <dbl> <dbl>   <dbl>  <dbl> <dbl>    <dbl>    <dbl>
 1 lp__        -73.3  -73.0  1.07  0.855 -75.4   -72.2  1.00      370.     379.
 2 alpha_prior   2.11   1.76 1.52  1.31    0.361   5.18 1.000     383.     446.
 3 beta_prior    1.25   1.07 0.819 0.651   0.299   2.90 1.00      407.     399.
 4 alpha[1]      2.11   1.76 1.52  1.31    0.361   5.18 1.000     383.     446.
 5 alpha[2]      3.11   2.76 1.52  1.31    1.36    6.18 1.000     383.     446.
 6 alpha[3]      4.11   3.76 1.52  1.31    2.36    7.18 1.000     383.     446.
 7 alpha[4]      4.11   3.76 1.52  1.31    2.36    7.18 1.000     383.     446.
 8 alpha[5]      5.11   4.76 1.52  1.31    3.36    8.18 1.000     383.     446.
 9 alpha[6]      6.11   5.76 1.52  1.31    4.36    9.18 1.000     383.     446.
10 alpha[7]      6.11   5.76 1.52  1.31    4.36    9.18 1.000     383.     446.
# ℹ 354 more rows
…
