Chapter 8 Bonus chapter: Additional models developed by students | 10-CategorizationModels
…
8.9 Basic assessment

samples_wsls_simple$summary() 

## # A tibble: 364 × 10
##    variable       mean   median    sd   mad      q5     q95  rhat ess_bulk ess_tail
##    <chr>         <num>    <num> <num> <num>   <num>   <num> <num>    <num>    <num>
##  1 lp__       -7.31e+1 -7.28e+1 1.17  0.968 -75.5   -71.8    1.00    1604.    2128.
##  2 alpha      -1.14e-1 -1.15e-1 0.184 0.187  -0.409   0.188  1.00    2636.    2173.
##  3 winB        1.03e+0  1.02e+0 0.287 0.287   0.573   1.52   1.00    2671.    2245.
##  4 loseB       1.05e+0  1.04e+0 0.299 0.299   0.572   1.56   1.00    2462.    2119.
##  5 alpha_pri…  1.41e-2  2.91e-2 0.994 0.997  -1.66    1.63   1.00    3983.    3845.
##  6 winB_prior  2.02e-2  7.96e-3 1.02  1.03   -1.67    1.70   1.00    3776.    3413.
##  7 loseB_pri…  2.72e-3  8.60e-3 1.00  1.01   -1.61    1.63   1.00    3951.    4087.
##  8 prior_pre…  5.00e-1  0       0.500 0       0       1      1.00    3906.      NA 
##  9 prior_pre…  4.92e-1  0       0.500 0       0       1      1.00    3819.      NA 
## 10 prior_pre…  5.14e-1  1   e+0 0.500 0       0       1      1.00    3958.      NA 
## # ℹ 354 more rows
…
8.12 Quality checks

samples_wsls_ml$summary() 

## # A tibble: 36,115 × 10
##    variable        mean    median      sd     mad        q5      q95  rhat ess_bulk
##    <chr>          <num>     <num>   <num>   <num>     <num>    <num> <num>    <num>
##  1 lp__       -5844.    -5843.    14.6    14.6    -5868.    -5.82e+3  1.00     878.
##  2 winM           1.53      1.53   0.0442  0.0437     1.46   1.60e+0  1.00    1931.
##  3 loseM          1.51      1.51   0.0480  0.0468     1.43   1.59e+0  1.00    2425.
##  4 tau[1]         0.307     0.306  0.0466  0.0462     0.234  3.85e-1  1.00    1480.
##  5 tau[2]         0.301     0.302  0.0603  0.0592     0.203  4.00e-1  1.00    1418.
##  6 z_IDs[1,1]    -0.577    -0.591  0.729   0.716     -1.76   6.28e-1  1.00    4231.
##  7 z_IDs[2,1]     0.773     0.775  0.823   0.822     -0.592  2.14e+0  1.00    3736.
##  8 z_IDs[1,2]    -0.965    -0.972  0.707   0.691     -2.13   2.02e-1  1.00    4053.
##  9 z_IDs[2,2]    -0.817    -0.820  0.770   0.770     -2.05   4.19e-1  1.00    4131.
## 10 z_IDs[1,3]    -1.60     -1.61   0.659   0.653     -2.69  -5.16e-1  1.00    4457.
## # ℹ 36,105 more rows
## # ℹ 1 more variable: ess_tail <num>
…
