Chapter 10 Categorization models | 10-CategorizationModels
…
samples_gcm$summary()

## # A tibble: 5,129 × 10
##    variable     mean   median     sd    mad        q5      q95  rhat ess_bulk ess_tail
##    <chr>       <num>    <num>  <num>  <num>     <num>    <num> <num>    <num>    <num>
##  1 lp__     -375.    -374.    1.01   0.792  -376.     -374.     1.00     380.     644.
##  2 w[1]        0.396    0.396 0.0556 0.0550    0.308     0.492  1.01     849.     469.
##  3 w[2]        0.604    0.604 0.0556 0.0550    0.508     0.692  1.01     849.     469.
##  4 logit_c     0.206    0.206 0.177  0.176    -0.0874    0.494  1.00     948.     680.
##  5 c           1.10     1.10  0.0869 0.0868    0.956     1.24   1.00     948.     680.
##  6 r[1]        0.5      0.5   0      0         0.5       0.5   NA         NA       NA 
##  7 r[2]        0.5      0.5   0      0         0.5       0.5   NA         NA       NA 
##  8 r[3]        0.5      0.5   0      0         0.5       0.5   NA         NA       NA 
##  9 r[4]        0.185    0.183 0.0221 0.0226    0.150     0.224  1.00     901.     709.
## 10 r[5]        0.279    0.279 0.0248 0.0247    0.237     0.318  1.00     865.     593.
## # ℹ 5,119 more rows
…
