Chapter 5 From simulation to model fitting | 09 — Bayesian Models of Cognition
…
  # Save the fitted model
  samples_memory_bayes$save_object(file = model_file)
  cat("Generated new model fit and saved to", model_file, "\n")
} else {
  # Load existing results
  samples_memory_bayes <- readRDS(model_file)
  cat("Loaded existing model fit from", model_file, "\n")
}

## Loaded existing model fit from /Users/au209589/Dropbox/Teaching/AdvancedCognitiveModeling23_book/simmodels/04_BayesianMemory.rds

samples_memory_bayes$summary() 

## # A tibble: 364 × 10
##    variable       mean  median    sd   mad      q5    q95  rhat ess_bulk ess_tail
##    <chr>         <dbl>   <dbl> <dbl> <dbl>   <dbl>  <dbl> <dbl>    <dbl>    <dbl>
##  1 lp__        -60.4   -60.0   1.10  0.723 -62.7   -59.4  0.999     268.     421.
##  2 alpha_prior   3.05    2.75  1.75  1.48    0.976   6.63 1.00      451.     411.
##  3 beta_prior    0.839   0.691 0.629 0.505   0.130   2.03 0.999     340.     283.
##  4 alpha[1]      3.05    2.75  1.75  1.48    0.976   6.63 1.00      451.     411.
##  5 alpha[2]      4.05    3.75  1.75  1.48    1.98    7.63 1.00      451.     411.
##  6 alpha[3]      5.05    4.75  1.75  1.48    2.98    8.63 1.00      451.     411.
##  7 alpha[4]      6.05    5.75  1.75  1.48    3.98    9.63 1.00      451.     411.
##  8 alpha[5]      7.05    6.75  1.75  1.48    4.98   10.6  1.00      451.     411.
##  9 alpha[6]      8.05    7.75  1.75  1.48    5.98   11.6  1.00      451.     411.
## 10 alpha[7]      8.05    7.75  1.75  1.48    5.98   11.6  1.00      451.     411.
## # ℹ 354 more rows
…
