Chapter 7 Individual Differences in Cognitive Strategies (Multilevel modeling) | 07-MixtureModels
…
# Save both object and CSV files
samples$save_object(file = "simmodels/W5_MultilevelBias.RDS")

7.7.2 Assessing multilevel random agents

Besides the usual prior predictive checks, prior posterior update checks, posterior predictive checks, based on the population level estimates; we also want to plot at least a few of the single agents to assess how well the model is doing for them.

[MISSING: PLOT MODEL ESTIMATES AGAINST N OF HEADS BY PARTICIPANT]

samples <- readRDS("simmodels/W5_MultilevelBias.RDS")
#samples$cmdstan_diagnose()
samples$summary() 

## # A tibble: 109 × 10
##    variable      mean    median     sd    mad        q5       q95  rhat ess_bulk ess_tail
##    <chr>        <dbl>     <dbl>  <dbl>  <dbl>     <dbl>     <dbl> <dbl>    <dbl>    <dbl>
##  1 lp__     -5816.    -5816.    7.31   7.12   -5828.    -5804.     1.00    1617.    2067.
##  2 thetaM       1.47      1.47  0.0612 0.0607     1.37      1.57   1.00    4675.    3138.
##  3 thetaSD      0.553     0.551 0.0455 0.0448     0.481     0.634  1.00    3169.    2902.
##  4 theta[1]     1.87      1.87  0.242  0.242      1.49      2.27   1.00    6087.    3225.
##  5 theta[2]     2.06      2.04  0.255  0.258      1.65      2.49   1.00    5572.    2964.
##  6 theta[3]     1.41      1.41  0.212  0.217      1.07      1.75   1.00    5623.    2664.
##  7 theta[4]     1.99      1.98  0.257  0.254      1.57      2.42   1.00    6618.    2740.
##  8 theta[5]     2.34      2.33  0.284  0.282      1.89      2.82   1.00    6527.    2614.
##  9 theta[6]     1.37      1.36  0.210  0.215      1.03      1.72   1.00    6795.    2532.
## 10 theta[7]     1.55      1.55  0.228  0.234      1.18      1.92   1.00    5341.    2615.
## # ℹ 99 more rows
…
