Chapter 7 Model comparison | 10-CategorizationModels
…
save(samples, data, 
          file = "simmodels/W7_multimixture.RData") 
samples$save_object(file = "simmodels/W7_multimixture.RDS")
samples$save_output_files(dir = "simmodels", basename = "W7_multimixture")

## Moved 2 files and set internal paths to new locations:
## - /Users/au209589/Dropbox/Teaching/AdvancedCognitiveModeling23_book/simmodels/W7_multimixture-202304301912-1-80d206.csv
## - /Users/au209589/Dropbox/Teaching/AdvancedCognitiveModeling23_book/simmodels/W7_multimixture-202304301912-2-80d206.csv

[MISSING: EVALUATION]

samples$summary()

## # A tibble: 60,417 × 10
##    variable         mean    median      sd     mad       q5      q95  rhat ess_bulk ess_tail
##    <chr>           <num>     <num>   <num>   <num>    <num>    <num> <num>    <num>    <num>
##  1 lp__       -6259.      -6.26e+3 12.2    11.9    -6.28e+3 -6.24e+3  1.00     873.    1788.
##  2 thetaM         1.46     1.46e+0  0.0575  0.0558  1.37e+0  1.56e+0  1.00    1322.    1600.
##  3 noiseM        -2.10    -2.09e+0  0.279   0.278  -2.57e+0 -1.66e+0  1.00    4485.    2669.
##  4 tau[1]         0.484    4.81e-1  0.0494  0.0489  4.09e-1  5.71e-1  1.00     919.    1651.
##  5 tau[2]         0.211    1.74e-1  0.162   0.156   1.73e-2  5.28e-1  1.00    3010.    2059.
##  6 z_IDs[1,1]     0.478    4.73e-1  0.490   0.465  -2.86e-1  1.30e+0  1.00    6586.    2610.
##  7 z_IDs[2,1]    -0.0345  -2.96e-2  1.01    1.04   -1.70e+0  1.61e+0  1.00    8946.    2479.
##  8 z_IDs[1,2]    -1.29    -1.28e+0  0.406   0.398  -1.97e+0 -6.29e-1  1.00    4197.    2299.
##  9 z_IDs[2,2]    -0.0223  -1.82e-2  1.00    1.01   -1.69e+0  1.64e+0  1.00   10691.    2759.
## 10 z_IDs[1,3]     0.687    6.72e-1  0.498   0.484  -1.04e-1  1.52e+0  1.00    6717.    2286.
## # ℹ 60,407 more rows
…
