Chapter 6 Model Quality Assessment | 04-ModelQualityChecks
…
## Running MCMC with 1 chain, with 2 thread(s) per chain...
## 
## Chain 1 finished in 0.5 seconds.

samples$summary() 

## # A tibble: 131 × 10
##    variable     mean  median    sd   mad      q5     q95  rhat ess_bulk ess_tail
##    <chr>       <dbl>   <dbl> <dbl> <dbl>   <dbl>   <dbl> <dbl>    <dbl>    <dbl>
##  1 lp__      -56.3   -56.0   1.05  0.670 -58.4   -55.4    1.00     314.     247.
##  2 bias        0.264   0.261 0.246 0.239  -0.154   0.661  1.00     299.     303.
##  3 beta        0.886   0.875 0.214 0.210   0.528   1.25   1.01     266.     247.
##  4 memory[1]   0.5     0.5   0     0       0.5     0.5   NA         NA       NA 
##  5 memory[2]   0.99    0.99  0     0       0.99    0.99  NA         NA       NA 
##  6 memory[3]   0.495   0.495 0     0       0.495   0.495 NA         NA       NA 
##  7 memory[4]   0.663   0.663 0     0       0.663   0.663 NA         NA       NA 
##  8 memory[5]   0.748   0.748 0     0       0.748   0.748 NA         NA       NA 
##  9 memory[6]   0.798   0.798 0     0       0.798   0.798 NA         NA       NA 
## 10 memory[7]   0.832   0.832 0     0       0.832   0.832 NA         NA       NA 
## # ℹ 121 more rows
…
