Chapter 8 Model Comparison in Cognitive Science | 07-MixtureModels
…
save(samples, data, 
          file = "simmodels/W7_multimixture.RData") 
samples$save_object(file = "simmodels/W7_multimixture.RDS")
samples$save_output_files(dir = "simmodels", basename = "W7_multimixture")

[MISSING: EVALUATION]

samples$summary()

## # A tibble: 60,417 × 10
##    variable         mean     median      sd     mad         q5       q95  rhat ess_bulk ess_tail
##    <chr>           <dbl>      <dbl>   <dbl>   <dbl>      <dbl>     <dbl> <dbl>    <dbl>    <dbl>
##  1 lp__       -6282.     -6281.     13.2    13.1    -6305.     -6260.     1.00     737.    1528.
##  2 thetaM         1.41       1.41    0.0650  0.0637     1.31       1.52   1.00    1497.    2051.
##  3 noiseM        -2.34      -2.34    0.315   0.308     -2.86      -1.84   1.00    3639.    2055.
##  4 tau[1]         0.568      0.565   0.0530  0.0522     0.484      0.659  1.00    1077.    2007.
##  5 tau[2]         0.204      0.173   0.151   0.150      0.0193     0.497  1.00    3862.    2391.
##  6 z_IDs[1,1]     0.143      0.138   0.380   0.375     -0.473      0.786  1.00    6420.    2779.
##  7 z_IDs[2,1]    -0.0209    -0.0159  1.01    1.03      -1.69       1.64   1.00   10804.    2755.
##  8 z_IDs[1,2]     0.228      0.225   0.407   0.397     -0.442      0.896  1.00    7772.    2630.
##  9 z_IDs[2,2]    -0.0185    -0.0375  0.982   0.986     -1.65       1.58   1.00    9849.    2787.
## 10 z_IDs[1,3]     1.93       1.91    0.527   0.521      1.11       2.83   1.00    7475.    2623.
## # ℹ 60,407 more rows
…
