Chapter 6 Multilevel modeling | 05-MultilevelModeling
…
samples$summary() 

## # A tibble: 109 × 10
##    variable       mean     median     sd    mad        q5       q95  rhat ess_bulk ess_tail
##    <chr>         <dbl>      <dbl>  <dbl>  <dbl>     <dbl>     <dbl> <dbl>    <dbl>    <dbl>
##  1 lp__     -5712.     -5711.     7.46   7.47   -5724.    -5700.     1.00    1413.    2006.
##  2 thetaM       1.51       1.51   0.0701 0.0668     1.40      1.63   1.00    7299.    3214.
##  3 thetaSD      0.652      0.649  0.0523 0.0510     0.571     0.742  1.00    5239.    3674.
##  4 theta[1]     0.991      0.991  0.205  0.198      0.656     1.34   1.00   10872.    2445.
##  5 theta[2]     1.90       1.90   0.254  0.256      1.49      2.33   1.00    8183.    2533.
##  6 theta[3]     0.0511     0.0504 0.183  0.184     -0.258     0.354  1.00   10436.    2730.
##  7 theta[4]     1.56       1.56   0.225  0.225      1.20      1.93   1.00   10039.    2900.
##  8 theta[5]     2.81       2.80   0.344  0.332      2.27      3.40   1.00    8840.    2595.
##  9 theta[6]     2.33       2.33   0.284  0.289      1.87      2.81   1.00    9672.    2889.
## 10 theta[7]     2.17       2.17   0.279  0.283      1.74      2.64   1.00   10034.    2888.
## # … with 99 more rows
…
