Chapter 5 Practical exercise 4 - Model quality checks | 11 - Reinforcement Learning
…
## Running MCMC with 1 chain, with 2 thread(s) per chain...
## 
## Chain 1 finished in 0.6 seconds.

samples$summary() 

## # A tibble: 131 × 10
##    variable     mean  median    sd   mad      q5     q95  rhat ess_bulk ess_tail
##    <chr>       <dbl>   <dbl> <dbl> <dbl>   <dbl>   <dbl> <dbl>    <dbl>    <dbl>
##  1 lp__      -71.2   -70.9   1.21  0.658 -73.6   -70.3    1.02     300.     194.
##  2 bias        0.128   0.126 0.239 0.233  -0.267   0.504  1.01     326.     236.
##  3 beta        0.723   0.737 0.251 0.224   0.312   1.12   1.00     412.     307.
##  4 memory[1]   0.5     0.5   0     0       0.5     0.5   NA         NA       NA 
##  5 memory[2]   0.01    0.01  0     0       0.01    0.01  NA         NA       NA 
##  6 memory[3]   0.505   0.505 0     0       0.505   0.505 NA         NA       NA 
##  7 memory[4]   0.67    0.67  0     0       0.67    0.67  NA         NA       NA 
##  8 memory[5]   0.752   0.752 0     0       0.752   0.752 NA         NA       NA 
##  9 memory[6]   0.802   0.802 0     0       0.802   0.802 NA         NA       NA 
## 10 memory[7]   0.668   0.668 0     0       0.668   0.668 NA         NA       NA 
## # ℹ 121 more rows
…
