Chapter 4 Practical exercise 3 - Getting into Stan | Advanced Cognitive Modeling Notes
…
## Running MCMC with 1 chain, with 2 thread(s) per chain...
## 
## Chain 1 Iteration:    1 / 2000 [  0%]  (Warmup) 
## Chain 1 Iteration:  500 / 2000 [ 25%]  (Warmup) 
## Chain 1 Iteration: 1000 / 2000 [ 50%]  (Warmup) 
## Chain 1 Iteration: 1001 / 2000 [ 50%]  (Sampling) 
## Chain 1 Iteration: 1500 / 2000 [ 75%]  (Sampling) 
## Chain 1 Iteration: 2000 / 2000 [100%]  (Sampling) 
## Chain 1 finished in 0.2 seconds.

samples$summary() 

## # A tibble: 125 × 10
##    variable    mean  median    sd   mad      q5     q95  rhat ess_bulk ess_tail
##    <chr>      <dbl>   <dbl> <dbl> <dbl>   <dbl>   <dbl> <dbl>    <dbl>    <dbl>
##  1 lp__     -59.6   -59.3   0.951 0.671 -61.5   -58.8   1.00      287.     441.
##  2 alpha      1.30    1.30  0.317 0.284   0.760   1.84  1.00      207.     216.
##  3 beta       0.149   0.169 0.285 0.275  -0.331   0.594 0.999     221.     158.
##  4 preds[1]  96.8    97     5.75  5.93   87     105     1.00      826.     734.
##  5 preds[2]  96.9    97     5.93  5.93   87     106     1.00      878.     872.
##  6 preds[3]  97.2    97     5.89  5.93   87     106.    0.999     854.     815.
##  7 preds[4]  97.0    97     6.02  5.93   86     106     1.00      831.     888.
##  8 preds[5]  97.0    97     5.95  5.93   87     106     0.999     777.     810.
##  9 preds[6]  97.0    97     5.79  5.93   87     106     1.00      774.     766.
## 10 preds[7]  96.3    97     5.76  5.93   86     105     0.999     782.     852.
## # … with 115 more rows
…
